[
  {
    "id": 0,
    "name": "Duran Goodwin",
    "age": 35,
    "gender": "male",
    "company": "HELIXO",
    "email": "durangoodwin@helixo.com",
    "phone": "+1 (933) 588-3587"
  },
  {
    "id": 1,
    "name": "Regina Case",
    "age": 39,
    "gender": "female",
    "company": "KENEGY",
    "email": "reginacase@kenegy.com",
    "phone": "+1 (811) 416-2314"
  },
  {
    "id": 2,
    "name": "Hester Salinas",
    "age": 20,
    "gender": "male",
    "company": "PUSHCART",
    "email": "hestersalinas@pushcart.com",
    "phone": "+1 (997) 554-2933"
  },
  {
    "id": 3,
    "name": "Tamera Romero",
    "age": 20,
    "gender": "female",
    "company": "HYPLEX",
    "email": "tameraromero@hyplex.com",
    "phone": "+1 (909) 478-2504"
  },
  {
    "id": 4,
    "name": "Arline Carrillo",
    "age": 37,
    "gender": "female",
    "company": "MULTRON",
    "email": "arlinecarrillo@multron.com",
    "phone": "+1 (812) 463-3652"
  },
  {
    "id": 5,
    "name": "Singleton Aguirre",
    "age": 27,
    "gender": "male",
    "company": "PRISMATIC",
    "email": "singletonaguirre@prismatic.com",
    "phone": "+1 (823) 596-2086"
  },
  {
    "id": 6,
    "name": "Randi Foley",
    "age": 40,
    "gender": "female",
    "company": "KONNECT",
    "email": "randifoley@konnect.com",
    "phone": "+1 (821) 569-2501"
  },
  {
    "id": 7,
    "name": "Pate Daniels",
    "age": 40,
    "gender": "male",
    "company": "CUBICIDE",
    "email": "patedaniels@cubicide.com",
    "phone": "+1 (929) 590-3137"
  },
  {
    "id": 8,
    "name": "Valenzuela Green",
    "age": 34,
    "gender": "male",
    "company": "SPHERIX",
    "email": "valenzuelagreen@spherix.com",
    "phone": "+1 (950) 496-3818"
  },
  {
    "id": 9,
    "name": "Erma Knox",
    "age": 24,
    "gender": "female",
    "company": "BEDDER",
    "email": "ermaknox@bedder.com",
    "phone": "+1 (825) 558-2070"
  },
  {
    "id": 10,
    "name": "Antonia Holt",
    "age": 27,
    "gender": "female",
    "company": "PYRAMAX",
    "email": "antoniaholt@pyramax.com",
    "phone": "+1 (939) 557-2324"
  },
  {
    "id": 11,
    "name": "Meadows Buckley",
    "age": 23,
    "gender": "male",
    "company": "KNOWLYSIS",
    "email": "meadowsbuckley@knowlysis.com",
    "phone": "+1 (919) 502-2444"
  },
  {
    "id": 12,
    "name": "Reynolds Evans",
    "age": 22,
    "gender": "male",
    "company": "ANIVET",
    "email": "reynoldsevans@anivet.com",
    "phone": "+1 (905) 535-2170"
  },
  {
    "id": 13,
    "name": "Hahn Sparks",
    "age": 35,
    "gender": "male",
    "company": "DIGIGENE",
    "email": "hahnsparks@digigene.com",
    "phone": "+1 (902) 443-3249"
  },
  {
    "id": 14,
    "name": "Sue Lowery",
    "age": 21,
    "gender": "female",
    "company": "COMBOGEN",
    "email": "suelowery@combogen.com",
    "phone": "+1 (955) 420-3613"
  },
  {
    "id": 15,
    "name": "Buckner Burt",
    "age": 21,
    "gender": "male",
    "company": "PAPRICUT",
    "email": "bucknerburt@papricut.com",
    "phone": "+1 (803) 499-2000"
  },
  {
    "id": 16,
    "name": "Hopkins Tucker",
    "age": 27,
    "gender": "male",
    "company": "PROFLEX",
    "email": "hopkinstucker@proflex.com",
    "phone": "+1 (957) 453-2549"
  },
  {
    "id": 17,
    "name": "Roberta Sullivan",
    "age": 25,
    "gender": "female",
    "company": "OULU",
    "email": "robertasullivan@oulu.com",
    "phone": "+1 (807) 523-3283"
  },
  {
    "id": 18,
    "name": "Daisy Schneider",
    "age": 25,
    "gender": "female",
    "company": "URBANSHEE",
    "email": "daisyschneider@urbanshee.com",
    "phone": "+1 (830) 564-3972"
  },
  {
    "id": 19,
    "name": "Sophie Hoffman",
    "age": 35,
    "gender": "female",
    "company": "DATACATOR",
    "email": "sophiehoffman@datacator.com",
    "phone": "+1 (858) 484-3571"
  },
  {
    "id": 20,
    "name": "Robbins Obrien",
    "age": 38,
    "gender": "male",
    "company": "RAMJOB",
    "email": "robbinsobrien@ramjob.com",
    "phone": "+1 (914) 458-2532"
  },
  {
    "id": 21,
    "name": "Shelley Mccarthy",
    "age": 20,
    "gender": "female",
    "company": "SUNCLIPSE",
    "email": "shelleymccarthy@sunclipse.com",
    "phone": "+1 (864) 441-2222"
  },
  {
    "id": 22,
    "name": "Pugh Wood",
    "age": 40,
    "gender": "male",
    "company": "ACLIMA",
    "email": "pughwood@aclima.com",
    "phone": "+1 (956) 418-3891"
  },
  {
    "id": 23,
    "name": "Minerva Bentley",
    "age": 40,
    "gender": "female",
    "company": "ZAPHIRE",
    "email": "minervabentley@zaphire.com",
    "phone": "+1 (817) 421-2936"
  },
  {
    "id": 24,
    "name": "Irwin Jarvis",
    "age": 25,
    "gender": "male",
    "company": "PLASMOX",
    "email": "irwinjarvis@plasmox.com",
    "phone": "+1 (951) 461-2552"
  },
  {
    "id": 25,
    "name": "Pearlie Vazquez",
    "age": 29,
    "gender": "female",
    "company": "TROPOLIS",
    "email": "pearlievazquez@tropolis.com",
    "phone": "+1 (924) 492-2996"
  },
  {
    "id": 26,
    "name": "Corrine Dodson",
    "age": 30,
    "gender": "female",
    "company": "SECURIA",
    "email": "corrinedodson@securia.com",
    "phone": "+1 (977) 441-2940"
  },
  {
    "id": 27,
    "name": "Stuart Chandler",
    "age": 25,
    "gender": "male",
    "company": "ZOID",
    "email": "stuartchandler@zoid.com",
    "phone": "+1 (819) 486-3446"
  },
  {
    "id": 28,
    "name": "Mari West",
    "age": 39,
    "gender": "female",
    "company": "POLARIUM",
    "email": "mariwest@polarium.com",
    "phone": "+1 (952) 447-3897"
  },
  {
    "id": 29,
    "name": "Alvarado Whitley",
    "age": 23,
    "gender": "male",
    "company": "BRAINCLIP",
    "email": "alvaradowhitley@brainclip.com",
    "phone": "+1 (942) 483-3623"
  },
  {
    "id": 30,
    "name": "Bonnie Taylor",
    "age": 21,
    "gender": "female",
    "company": "OVERPLEX",
    "email": "bonnietaylor@overplex.com",
    "phone": "+1 (935) 551-3260"
  },
  {
    "id": 31,
    "name": "Reyna Henderson",
    "age": 23,
    "gender": "female",
    "company": "ACRUEX",
    "email": "reynahenderson@acruex.com",
    "phone": "+1 (925) 402-3458"
  },
  {
    "id": 32,
    "name": "Olivia Haynes",
    "age": 33,
    "gender": "female",
    "company": "EARTHPLEX",
    "email": "oliviahaynes@earthplex.com",
    "phone": "+1 (951) 426-2557"
  },
  {
    "id": 33,
    "name": "Karyn Atkins",
    "age": 39,
    "gender": "female",
    "company": "QUILITY",
    "email": "karynatkins@quility.com",
    "phone": "+1 (869) 530-2161"
  },
  {
    "id": 34,
    "name": "Stafford Silva",
    "age": 36,
    "gender": "male",
    "company": "ZOLARITY",
    "email": "staffordsilva@zolarity.com",
    "phone": "+1 (816) 529-3415"
  },
  {
    "id": 35,
    "name": "Estrada Johnson",
    "age": 24,
    "gender": "male",
    "company": "ZENSURE",
    "email": "estradajohnson@zensure.com",
    "phone": "+1 (964) 439-3940"
  },
  {
    "id": 36,
    "name": "Shari Martinez",
    "age": 31,
    "gender": "female",
    "company": "CEDWARD",
    "email": "sharimartinez@cedward.com",
    "phone": "+1 (937) 552-3322"
  },
  {
    "id": 37,
    "name": "Francis Knapp",
    "age": 29,
    "gender": "male",
    "company": "CHILLIUM",
    "email": "francisknapp@chillium.com",
    "phone": "+1 (882) 446-3574"
  },
  {
    "id": 38,
    "name": "Becker Meyers",
    "age": 39,
    "gender": "male",
    "company": "QUIZKA",
    "email": "beckermeyers@quizka.com",
    "phone": "+1 (997) 511-3802"
  },
  {
    "id": 39,
    "name": "Ward Brock",
    "age": 20,
    "gender": "male",
    "company": "MARTGO",
    "email": "wardbrock@martgo.com",
    "phone": "+1 (947) 573-2605"
  },
  {
    "id": 40,
    "name": "Luisa Santana",
    "age": 29,
    "gender": "female",
    "company": "NITRACYR",
    "email": "luisasantana@nitracyr.com",
    "phone": "+1 (834) 553-3969"
  },
  {
    "id": 41,
    "name": "Leanne Puckett",
    "age": 20,
    "gender": "female",
    "company": "DAIDO",
    "email": "leannepuckett@daido.com",
    "phone": "+1 (838) 562-3691"
  },
  {
    "id": 42,
    "name": "Huff Raymond",
    "age": 20,
    "gender": "male",
    "company": "AQUAZURE",
    "email": "huffraymond@aquazure.com",
    "phone": "+1 (977) 576-3155"
  },
  {
    "id": 43,
    "name": "Christa Sellers",
    "age": 21,
    "gender": "female",
    "company": "OPTYK",
    "email": "christasellers@optyk.com",
    "phone": "+1 (973) 555-3198"
  },
  {
    "id": 44,
    "name": "Delaney Gross",
    "age": 25,
    "gender": "male",
    "company": "MAINELAND",
    "email": "delaneygross@maineland.com",
    "phone": "+1 (931) 595-3420"
  },
  {
    "id": 45,
    "name": "Carlson Jacobson",
    "age": 40,
    "gender": "male",
    "company": "IMAGEFLOW",
    "email": "carlsonjacobson@imageflow.com",
    "phone": "+1 (816) 563-2213"
  },
  {
    "id": 46,
    "name": "Odom Oconnor",
    "age": 20,
    "gender": "male",
    "company": "ENTHAZE",
    "email": "odomoconnor@enthaze.com",
    "phone": "+1 (910) 470-2582"
  },
  {
    "id": 47,
    "name": "Tammi Jordan",
    "age": 29,
    "gender": "female",
    "company": "GENESYNK",
    "email": "tammijordan@genesynk.com",
    "phone": "+1 (950) 587-3850"
  }
]